Name,Price,Quantity,Currency,Cost
Intel Core i5 11400 OEM, 16500, 1, RUB, 16500
 NVIDIA GTX1050 Ti, 20620, 10, RUB , 206200
500gb Samsung 870 EVO, 95, 2, USD, 190
,,,,,
 , , , ,
NVIDIA RTX2060 Colorful Dual 12Gb , 58000, 0,RUB, 58000
MikroTik Router RBD52G, 4950, RUB
6.4Tb Micron 7400 Max,,1,USD,1800
Intel Core i3 12300 OEM,15340,4,RUB,61360
 Intel Celeron G6900 BOX, 6660, 1,RUB ,6660,упаковка имеет повреждения и следы использования,20%
MSI 32" MS321UP,85000,2,RUB,170000
14 TB SATA-III Toshiba N300, 422, 1, EUR, 422
NVIDIA RTX2060 Palit Dual 12Gb, 64000, 3,RUB, 192000
Asus ROG strix B660-F, 25300, RUB, 50600



